cl_comb_pairs	Bliss_max	Bliss_max_IC50	HSA_max	HSA_max_IC50	Grid_QC	DREAM_synergy_score
HCC1954_Ceralasertib:AZD7762	97.2	97.2	97.2	97.2	reliable	59.749
VMCUB1_AZ12618466:Pictilisib	8.7	6.7	8.8	8.4	reliable	0.948
VMCUB1_AZ12618466:AZD8186	10.7	7.6	10.9	9.3	reliable	10.69
VMCUB1_AZ13535704:AZD8186	19	4.1	19.5	6	reliable	10.69
VMCUB1_AZ13535704:Pictilisib	19	3.4	19.5	5.3	reliable	0.948
CAMA1_Ceralasertib:AZD7762	61.1	61.1	61.1	61.1	reliable	55.633
T24_AZD7762:Pictilisib	0	0	0.3	0.3	no synergy	1.519
T24_AZD7762:Sapitinib	0	0	0	0	no synergy	-0.401
T24_AZD7762:AZD8186	0	0	0.3	0.3	no synergy	16.649
T24_AZD7762:Saracatinib	0.1	0.1	0.7	0.5	reliable	2.687
HCC70_Ceralasertib:Selumetinib	6.4	0	6.4	0	no synergy	-7.353
SW780_AZ12618466:Olaparib	13.2	11	13.2	11	uncertain	-30.255
HCC1143_Ceralasertib:Pictilisib	0.2	0	0.2	0	reliable	-54.733
HCC1143_Ceralasertib:AZD8186	1.2	0	2.7	0	no synergy	-28.736
HCC1419_Olaparib:Carfilzomib	0.9	0.4	5.8	5.8	reliable	8.886
BT20_Ceralasertib:Selumetinib	0	0	0	0	no synergy	-11.717
HCC1806_Olaparib:AZD8186	1.9	0.3	9.6	9.6	reliable	21.405
HCC1806_Olaparib:Pictilisib	2.9	0.3	25.6	5	uncertain	25.594
UMUC3_Ceralasertib:Sapitinib	1.3	0	1.3	0	no synergy	-0.891
UMUC3_Ceralasertib:Pictilisib	8.8	0	8.8	0	no synergy	-5.528
UMUC3_Ceralasertib:Saracatinib	1	0	1	0.1	reliable	-3.899
UMUC3_Ceralasertib:AZD8186	4.4	0	6.7	0	no synergy	-6.108
HT1197_Ceralasertib:AZD7762	87.4	87.4	87.4	87.4	reliable	38.579
HT1197_Ceralasertib:Olaparib	11.4	7.1	12	7.1	uncertain	-50.71
HT29_AZD7762:Olaparib	0	0	0.2	0.2	no synergy	15.304
UACC812_AZD7762:Voxtalisib	0	0	0	0	no synergy	-58.357
UACC812_AZD7762:Regorafenib	1.9	1.9	2.7	2.7	reliable	-54.622
UACC812_AZD7762:Enzastaurin	0	0	0.8	0.8	reliable	12.89
HT1197_AZ12618466:Selumetinib	23.4	23.4	23.9	23.4	reliable	-22.8
HT1197_AZ12618466:Vorinostat	3.6	3.6	3.6	3.6	reliable	-7.735
T24_Ceralasertib:AZD7762	28.8	28.8	28.8	28.8	reliable	59.257
T24_Ceralasertib:Olaparib	5.6	2.4	5.6	2.4	uncertain	-14.327
DU4475_Olaparib:AZD8186	3.3	0	14.9	1.9	reliable	22.622
DU4475_Olaparib:Pictilisib	15.4	15.4	19.8	19.8	reliable	53.621
T47D_Olaparib:Idelalisib	0.9	0.1	1.1	1.1	reliable	23.104
T47D_Olaparib:Carfilzomib	2.3	2.3	3.3	3.3	reliable	-11.312
HT1376_AZD7762:Vorinostat	0.3	0.3	0.3	0.3	reliable	-25.736
HT1376_AZD7762:Selumetinib	0	0	0	0	no synergy	-8.331
CAL120_Ceralasertib:Pictilisib	49.6	49.6	49.6	49.6	reliable	-35.452
CAL120_Ceralasertib:AZD8186	46	46	46	46	reliable	-49.684
UMUC3_AZD7762:Olaparib	0	0	0.1	0	uncertain	29.007
HT1197_AZ13535704:Sapitinib	0	0	0	0	no synergy	17.027
HT1197_AZ13535704:AZD8186	1.5	0.9	6.3	0.9	reliable	3.844
HT1197_AZ13535704:Pictilisib	6.2	0.9	9.9	0.9	reliable	19.351
BFTC905_AZ13535704:Selumetinib	1	0.1	3.2	0.1	reliable	18.933
BFTC905_AZ13535704:Vorinostat	33.1	33.1	34.2	34.2	reliable	28.497
BFTC905_AZD7762:Selumetinib	0	0	0.1	0	no synergy	-40.529
NCIH2291_Ceralasertib:AZD7762	61.3	61.3	61.3	61.3	reliable	59.017
HT1376_Olaparib:Saracatinib	0.1	0.1	1.9	1.9	reliable	62.502
HT1376_Olaparib:AZD8186	0.1	0	3.3	0	reliable	12.154
HT1376_Olaparib:Pictilisib	1.5	1	4.1	2	reliable	11.863
CAMA1_AZD7762:Crizotinib	0.6	0.6	0.6	0.6	reliable	-11.457
HT1376_AZ12618466:Pictilisib	1.7	0	1.7	1	reliable	2.747
HT1376_AZ12618466:AZD8186	0	0	0.9	0	no synergy	11.274
HT1376_AZ12618466:Sapitinib	0	0	0	0	no synergy	-3.929
MDAMB361_AZD7762:Voxtalisib	49.8	49.8	49.8	49.8	reliable	-4.083
MDAMB361_AZD7762:Regorafenib	0	0	0	0	no synergy	-4.698
MDAMB361_AZD7762:Temsirolimus	0	0	0	0	reliable	23.814
MDAMB361_AZD7762:Enzastaurin	0	0	0	0	no synergy	0.849
NCIH1703_Ceralasertib:AZD7762	42.2	42.2	42.2	42.2	reliable	8.756
HT1197_AZD7762:Vorinostat	0.4	0.4	0.4	0.4	reliable	-10.017
HT1197_AZD7762:Selumetinib	1	0	1	0	no synergy	-38.362
HCC1806_Ceralasertib:Selumetinib	0.3	0	0.3	0	no synergy	7.633
DU4475_Ceralasertib:Selumetinib	0.1	0	0.1	0	reliable	-13.6
J82_Ceralasertib:Vorinostat	1.1	1.1	1.1	1.1	reliable	-24.426
J82_Ceralasertib:Selumetinib	0.1	0	0.1	0	no synergy	17.379
CAMA1_AZD7762:Vorinostat	0.1	0	0.1	0	reliable	-15.574
CAMA1_AZD7762:Trametinib	0.4	0	0.4	0	no synergy	74.04
CAMA1_AZD7762:Carfilzomib	0	0	0.9	0	no synergy	-5.064
CAMA1_AZD7762:Idelalisib	0	0	0.8	0	no synergy	27.396
CAMA1_AZD7762:Lonafarnib	0	0	0	0	no synergy	-33.154
CAMA1_AZD7762:Everolimus	0	0	0	0	no synergy	6.782
J82_AZ13535704:Ceralasertib	87.8	87.8	87.8	87.8	reliable	32.313
J82_AZ13535704:AZD7762	90.8	90.8	90.8	90.8	reliable	-4.832
J82_AZ13535704:Olaparib	0.6	0.6	0.9	0.9	reliable	40.917
BFTC905_AZD7762:Olaparib	0	0	0.1	0	no synergy	-9.867
HCC1187_Olaparib:AZD8186	2.2	1.3	4.8	1.3	reliable	13.511
HCC1187_Olaparib:Pictilisib	25.4	25.4	27.8	27.8	reliable	12.054
NCIH226_Ceralasertib:AZD7762	84.2	84.2	84.2	84.2	reliable	17.482
DMS114_Ceralasertib:AZD7762	60	60	60	60	reliable	45.44
BFTC905_AZ13535704:Sapitinib	0	0	0	0	no synergy	23.167
BFTC905_AZ13535704:AZD8186	6.4	0.1	14.4	1	reliable	34.999
BFTC905_AZ13535704:Pictilisib	8.8	0.2	9.8	2.2	reliable	23.145
BFTC905_AZ13535704:Saracatinib	1	1	2.1	2.1	reliable	-4.227
HT1376_AZ13535704:Sapitinib	0	0	0	0	reliable	-3.929
HT1376_AZ13535704:AZD8186	1	1	1	1	reliable	11.274
HT1376_AZ13535704:Pictilisib	1.7	1	2	2	reliable	2.747
MDAMB361_Olaparib:AZD1775	0	0	1.2	0.7	uncertain	0.939
SW837_AZD7762:Selumetinib	8.4	3.3	8.4	3.7	reliable	-8.024
HT1197_AZ12618466:Ceralasertib	90	90	90	90	reliable	-14.38
HT1197_AZ12618466:Olaparib	9.1	9.1	9.1	9.1	uncertain	52.608
J82_AZ12618466:Pictilisib	28.4	28.4	29.3	29.3	uncertain	-9.879
J82_AZ12618466:Saracatinib	1.2	1.2	1.3	1.3	reliable	19.383
J82_AZ12618466:AZD8186	48.8	48.8	49.7	49.7	uncertain	13.751
J82_AZ12618466:Sapitinib	0	0	0	0	no synergy	14.214
SW780_AZ13535704:AZD8186	10.3	0	10.7	0	no synergy	-52.142
SW780_AZ13535704:Pictilisib	11.1	0	11.8	0	no synergy	-43.614
J82_AZ12618466:Selumetinib	1	1	1	1	reliable	18.508
J82_AZ12618466:Vorinostat	2.9	2.9	2.9	2.9	reliable	13.089
T24_AZ13535704:Selumetinib	0	0	1	1	reliable	26.081
T24_AZ13535704:Vorinostat	3.7	0	3.7	0	no synergy	0.103
MDAMB157_Olaparib:AZD8186	0.2	0	8.9	0	reliable	21.951
MDAMB157_Olaparib:Pictilisib	1.4	1.4	8.9	2.1	reliable	24.969
T47D_Olaparib:Regorafenib	0	0	0	0	reliable	-11.711
T47D_Olaparib:Enzastaurin	0.9	0.1	1.1	1.1	reliable	11.198
T47D_Olaparib:Voxtalisib	2	1.3	3.1	3.1	reliable	-40.686
MDAMB468_Ceralasertib:Selumetinib	0	0	0	0	no synergy	4.146
UMUC3_AZ13535704:Ceralasertib	92.1	92.1	92.1	92.1	reliable	55.771
UMUC3_AZ13535704:AZD7762	81.7	81.7	81.7	81.7	reliable	11.062
UMUC3_AZ13535704:Olaparib	18.8	17.5	18.8	17.5	uncertain	89.153
CAMA1_Olaparib:Regorafenib	0	0	0	0	reliable	-6.365
CAMA1_Olaparib:Enzastaurin	0.8	0	2.6	2.6	reliable	11.327
CAMA1_Olaparib:AZD8186	0.4	0	2.5	1	reliable	21.66
CAMA1_Olaparib:Pictilisib	2	0	6.2	1	reliable	4.758
SW780_AZ12618466:Pictilisib	10.2	0.1	10.8	1	reliable	-43.614
SW780_AZ12618466:AZD8186	9.6	1	9.9	1	reliable	-52.142
HT29_AZ13242274:Selumetinib	0	0	1.6	0	no synergy	21.536
KU1919_Ceralasertib:Vorinostat	0	0	9.7	0	no synergy	-29.575
KU1919_Ceralasertib:Selumetinib	1.1	1.1	2.1	1.2	reliable	-67.007
CAMA1_Ceralasertib:Selumetinib	1.3	1.3	1.3	1.3	reliable	15.746
HT1197_AZ13535704:Selumetinib	1.5	0.9	1.6	0.9	reliable	-22.8
HT1197_AZ13535704:Vorinostat	2.7	2.7	2.7	2.7	reliable	-7.735
BT549_Ceralasertib:Selumetinib	9.6	0	9.8	0	no synergy	-23.596
HCC38_Ceralasertib:AZD8186	30.1	30.1	31	31	reliable	-38.895
HCC1428_Olaparib:AZD8186	1.6	1.6	2.9	1.6	reliable	-0.475
HCC1428_Olaparib:Pictilisib	19.9	19.9	22.8	22.8	reliable	-0.131
VMCUB1_Olaparib:AZD8186	1	0.2	2.1	2.1	reliable	5.311
VMCUB1_Olaparib:Pictilisib	0.9	0	1.5	1.2	reliable	25.356
TCCSUP_AZD7762:Vorinostat	0.2	0.2	0.2	0.2	reliable	-11.211
TCCSUP_AZD7762:Selumetinib	19	13.6	19	13.6	reliable	-7.2
HT29_AZ13242274:AZD7762	1	1	1	1	reliable	50.393
J82_AZD7762:Pictilisib	1.3	0	4.2	0	no synergy	-36.285
J82_AZD7762:Sapitinib	0	0	0	0	no synergy	-15.925
J82_AZD7762:AZD8186	0.9	0	5.5	0	no synergy	-23.193
J82_AZD7762:Saracatinib	0.4	0.4	0.4	0.4	reliable	-21.744
HCC1395_Ceralasertib:Pictilisib	34.1	0	34.5	0.6	uncertain	-19.701
HCC1395_Ceralasertib:AZD8186	30.8	0	31.2	0.6	uncertain	-0.457
T47D_Olaparib:AZD1775	0	0	0.3	0	no synergy	-10.448
TCCSUP_Ceralasertib:AZD7762	79.2	79.2	79.2	79.2	reliable	56.142
TCCSUP_Ceralasertib:Olaparib	12.5	11.6	14.9	13.8	uncertain	-35.976
T24_AZ12618466:Pictilisib	10.9	0	11.7	1.2	reliable	12.993
T24_AZ12618466:Saracatinib	1.4	1.4	2.2	2.2	reliable	3.757
T24_AZ12618466:AZD8186	11.3	0	11.9	1.2	reliable	26.862
T24_AZ12618466:Sapitinib	0	0	0	0	no synergy	-7.752
UACC812_AZD7762:AZD1775	70.2	70.2	70.2	70.2	reliable	72.903
VMCUB1_AZ13535704:Ceralasertib	80.5	80.5	82.4	82.4	reliable	24.847
VMCUB1_AZ13535704:AZD7762	82.5	82.5	82.5	82.5	reliable	-0.535
VMCUB1_AZ13535704:Olaparib	13.1	13.1	14.7	14.7	reliable	-17.034
KU1919_Olaparib:AZD8186	3.6	0	14.1	1	reliable	-86.556
KU1919_Olaparib:Pictilisib	6	4.3	15.1	5.2	reliable	-115.56
CAL148_Olaparib:AZD8186	0.2	0	2.5	1	reliable	-3.844
CAL148_Olaparib:Pictilisib	13.7	13.5	24.1	16.5	reliable	32.293
HT1197_AZ13535704:Ceralasertib	90	90	90	90	reliable	-14.38
HT1197_AZ13535704:Olaparib	8.4	8.4	8.4	8.4	reliable	52.608
J82_AZ13535704:Sapitinib	0	0	0	0	no synergy	14.214
J82_AZ13535704:AZD8186	2.4	0	7.3	1	uncertain	13.751
J82_AZ13535704:Pictilisib	1.3	0	9.2	1	reliable	-9.879
J82_AZ13535704:Saracatinib	1	1	1.5	1.5	reliable	19.383
HCC1500_Olaparib:AZD1775	4.4	0	19.2	0.4	reliable	2.643
KU1919_AZ12618466:Ceralasertib	89	89	89.9	89.9	uncertain	49.341
KU1919_AZ12618466:Olaparib	88.4	88.4	88.4	88.4	uncertain	53.029
HT1376_AZ13535704:AZD7762	95.2	95.2	95.2	95.2	reliable	-22.106
HT1376_AZ13535704:Olaparib	9.5	7.9	10.3	10.3	reliable	-23.494
BT20_Olaparib:AZD8186	0.6	0	4.5	1	reliable	9.144
BT20_Olaparib:Pictilisib	0.3	0	4.5	2	reliable	22.762
J82_AZD7762:Vorinostat	0	0	0	0	no synergy	-29.96
J82_AZD7762:Selumetinib	0	0	0	0	no synergy	-2.637
NCIH2291_AZD7762:AZ13250285	90.7	90.7	90.7	90.7	reliable	-35.839
MDAMB436_Ceralasertib:AZD7762	70.6	70.6	71.3	71.3	reliable	47.72
HT1376_AZ12618466:Olaparib	10.7	9.1	10.9	10	uncertain	-23.494
HT1376_AZ12618466:AZD7762	97.3	97.3	97.3	97.3	reliable	-22.106
647V_AZ13535704:Ceralasertib	84	84	84	84	reliable	36.488
647V_AZ13535704:AZD7762	6.5	0	6.5	0	no synergy	-10.983
647V_AZ13535704:Olaparib	9.9	9.9	9.9	9.9	reliable	41.353
MDAMB436_Ceralasertib:Selumetinib	2.1	2.1	3.1	3.1	reliable	8.561
UACC812_Olaparib:Idelalisib	0	0	0	0	no synergy	0.589
UACC812_Olaparib:Carfilzomib	1.8	0.4	7.4	1.2	reliable	8.752
HCC1187_Ceralasertib:Selumetinib	0.1	0	0.1	0	no synergy	-7.58
VMCUB1_AZ13535704:Selumetinib	18.3	0	18.3	0	no synergy	11.127
VMCUB1_AZ13535704:Vorinostat	3	0.5	3.5	2.4	reliable	59.745
HCC1143_Olaparib:AZD8186	1.7	0	6	1	reliable	12.083
HCC1143_Olaparib:Pictilisib	0	0	1	1	reliable	11.571
NCIH1299_Ceralasertib:AZD7762	36.8	36.8	36.8	36.8	reliable	71.747
SW780_Olaparib:AZD8186	0.9	0.9	3.2	3.2	reliable	-42.21
SW780_Olaparib:Pictilisib	1.7	1.7	6.2	6.2	reliable	-13.539
CAMA1_Olaparib:Idelalisib	1.4	0	13.1	0	no synergy	8.12
CAMA1_Olaparib:Carfilzomib	11.1	0.2	18.2	2.7	reliable	11.513
UMUC3_Olaparib:Saracatinib	1.1	1.1	1.1	1.1	reliable	1.266
UMUC3_Olaparib:AZD8186	1.3	1	19.6	1.8	reliable	12.882
UMUC3_Olaparib:Pictilisib	17.3	8.8	18.4	11.3	reliable	12.731
MDAMB157_Ceralasertib:AZD8186	1	0	2.6	0	no synergy	6.537
HCC1419_AZD7762:Vorinostat	1.9	1.9	1.9	1.9	reliable	-46.02
HCC1419_AZD7762:Trametinib	0	0	0	0	no synergy	5.902
HCC1419_AZD7762:Lonafarnib	0	0	0	0	no synergy	-3.567
HCC1419_AZD7762:Tamoxifen	0	0	0	0	no synergy	4.445
HT29_AZD7762:Selumetinib	0.1	0	1.3	0	no synergy	4.364
BFTC905_Ceralasertib:Olaparib	1.1	1.1	1.1	1.1	uncertain	-13.383
T24_AZ12618466:Selumetinib	4.2	0	4.4	1	reliable	26.081
T24_AZ12618466:Vorinostat	1	0	1	0	no synergy	0.103
NCIH1793_AZD7762:AZ13250285	85.7	85.7	85.7	85.7	reliable	-5.337
HS578T_Ceralasertib:Selumetinib	1.1	0	1.1	0	no synergy	-39.511
HT1376_Ceralasertib:Sapitinib	0	0	0	0	no synergy	-36.048
HT1376_Ceralasertib:Pictilisib	1.7	0	1.7	0	no synergy	-44.345
HT1197_AZ12618466:Pictilisib	42.7	42.7	44.6	44.6	reliable	19.351
HT1197_AZ12618466:AZD8186	42.8	42.8	44.1	44.1	reliable	3.844
HT1197_AZ12618466:Sapitinib	0	0	0	0	no synergy	17.027
MDAMB361_Olaparib:Idelalisib	1.1	1.1	3.3	3.3	reliable	-8.432
MDAMB361_Olaparib:Carfilzomib	9	7	10	10	reliable	22.238
HCC1500_Olaparib:Idelalisib	0	0	0	0	reliable	10.82
HCC1500_Olaparib:Carfilzomib	0.6	0.6	3.9	3.9	reliable	3.609
HCC1500_AZD7762:AZD1775	13.3	0	21.2	0.1	no synergy	10.249
HCC1500_AZD7762:Crizotinib	5.6	0.5	6	0.5	reliable	-24.311
647V_Olaparib:Saracatinib	0.5	0.5	1.4	1.3	reliable	-0.373
647V_Olaparib:AZD8186	28.4	28.4	29.3	29.3	reliable	26.655
647V_Olaparib:Pictilisib	31.5	31.5	32.4	32.4	reliable	13.118
VMCUB1_AZD7762:Vorinostat	0.1	0	3	1	no synergy	-2.859
VMCUB1_AZD7762:Selumetinib	0	0	0	0	no synergy	-78.394
MDAMB361_Olaparib:Regorafenib	0	0	0	0	reliable	-15.245
MDAMB361_Olaparib:Enzastaurin	1	0.4	1.1	1.1	reliable	2.369
MDAMB361_Olaparib:Voxtalisib	5.7	5.7	21.1	21.1	reliable	3.968
HCC1419_AZD7762:Temsirolimus	0	0	0.1	0.1	no synergy	7.088
HCC1419_AZD7762:Enzastaurin	0	0	0.1	0.1	no synergy	-21.992
NCIH520_AZD7762:AZ13250285	90.8	90.8	90.8	90.8	reliable	-20.242
J82_AZ13535704:Selumetinib	0.8	0.8	0.8	0.8	reliable	18.508
J82_AZ13535704:Vorinostat	90.7	90.7	91.8	91.8	reliable	13.089
HT1197_Ceralasertib:Vorinostat	3.6	1.1	3.6	1.1	reliable	-14.792
HT1197_Ceralasertib:Selumetinib	1.1	0	1.1	0	no synergy	-0.582
C32_AZ13135223:AZD7762	0	0	0	0	no synergy	56.366
BT20_Ceralasertib:AZD7762	42.6	42.6	42.6	42.6	reliable	51.034
CALU3_Ceralasertib:AZD7762	60.6	60.6	60.6	60.6	reliable	45.002
HT1376_AZD7762:Olaparib	0	0	0	0	no synergy	10.386
J82_Olaparib:Saracatinib	0	0	1.3	1.3	reliable	26.256
J82_Olaparib:AZD8186	36.1	4.4	37.9	5.1	uncertain	9.786
J82_Olaparib:Pictilisib	4	1	15.3	1.9	reliable	10.35
SW620_AZ13135223:AZD7762	4.2	4.2	4.2	4.2	reliable	87.514
HCC1806_Ceralasertib:Pictilisib	2.3	0	8.3	0	uncertain	-27.388
HCC1806_Ceralasertib:AZD8186	5.3	0	8	0	no synergy	18.972
HCC38_Olaparib:AZD8186	1	1	12	1.9	reliable	1.844
HCC38_Olaparib:Pictilisib	9.8	8.7	27.5	10	uncertain	25.352
TCCSUP_AZD7762:Pictilisib	79.9	79.9	79.9	79.9	reliable	-28.845
TCCSUP_AZD7762:Sapitinib	0	0	0	0	no synergy	-5.716
TCCSUP_AZD7762:AZD8186	65.3	65.3	65.3	65.3	reliable	-0.883
TCCSUP_AZD7762:Saracatinib	3.6	0.2	3.6	0.2	reliable	20.604
SW837_AZ13135223:AZD7762	88.4	88.4	88.4	88.4	reliable	37.549
MDAMB436_Olaparib:AZD8186	13.3	13.3	14.5	14.5	reliable	12.31
MDAMB436_Olaparib:Pictilisib	16.6	16.6	18.5	18.5	reliable	4.26
C32_AZD7762:Olaparib	0	0	0	0	uncertain	-26.315
HCC1395_Olaparib:AZD8186	3	0.8	16.6	1.4	reliable	14.831
HCC1395_Olaparib:Pictilisib	2.2	2.2	12.8	2.8	uncertain	-23.045
TCCSUP_AZ13535704:Selumetinib	9.2	1.7	9.2	1.7	reliable	5.975
TCCSUP_AZ13535704:Vorinostat	1	0	1	0	no synergy	8.384
BFTC905_AZ12618466:Pictilisib	7	1	7.9	1.5	reliable	23.145
BFTC905_AZ12618466:Saracatinib	1	1	1.1	1.1	reliable	-4.227
BFTC905_AZ12618466:AZD8186	10.4	0.1	11.7	1.1	reliable	34.999
BFTC905_AZ12618466:Sapitinib	0	0	0	0	no synergy	23.167
HT1197_Olaparib:Saracatinib	0	0	2.1	1	reliable	-31.66
HT1197_Olaparib:AZD8186	13.9	13.9	15.2	15.2	reliable	20.683
HT1197_Olaparib:Pictilisib	19.4	19.4	21.4	21.4	reliable	7.751
BT20_Ceralasertib:Pictilisib	0.1	0	0.1	0	reliable	-0.039
BT20_Ceralasertib:AZD8186	0	0	0	0	no synergy	3.162
MDAMB468_Olaparib:AZD8186	0.1	0	2.5	0.1	reliable	12.639
MDAMB468_Olaparib:Pictilisib	1	1	2.6	1.1	reliable	10.542
J82_AZD7762:Olaparib	0	0	0.1	0	no synergy	-46.894
HT1376_AZD7762:Sapitinib	0	0	0	0	no synergy	7.542
HT1376_AZD7762:AZD8186	95.2	95.2	95.2	95.2	reliable	2.789
MDAMB175VII_Olaparib:Regorafenib	0	0	0	0	reliable	5.281
HCC1428_Ceralasertib:Pictilisib	0.2	0.2	0.2	0.2	reliable	-39.636
HCC1428_Ceralasertib:AZD8186	0.2	0.2	0.2	0.2	reliable	2.6
HCC1937_Ceralasertib:Pictilisib	9.1	0	11.3	0	no synergy	-12.432
HCC1937_Ceralasertib:AZD8186	9.1	0	12.7	0	no synergy	-18.19
T24_AZ13535704:Sapitinib	0	0	0	0	no synergy	-7.752
T24_AZ13535704:AZD8186	10.4	0	10.7	2.1	reliable	26.862
T24_AZ13535704:Pictilisib	0	0	2.5	2.5	reliable	12.993
T24_AZ13535704:Saracatinib	0.6	0.6	1.4	1.4	reliable	3.757
HCC1500_AZD7762:Regorafenib	0.4	0	0.4	0	no synergy	1.757
HCC1500_AZD7762:Temsirolimus	0	0	1.5	1.5	no synergy	23.48
HCC1500_AZD7762:Enzastaurin	0.3	0.3	2	2	reliable	-12.033
SW900_AZD7762:AZ13250285	88.2	88.2	88.2	88.2	reliable	-28.883
MDAMB231_Ceralasertib:Selumetinib	4.2	0	4.2	0	no synergy	-21.434
647V_AZD7762:Pictilisib	4.4	0.3	4.5	0.7	reliable	-32.863
647V_AZD7762:Sapitinib	0	0	0	0	no synergy	-17.416
647V_AZD7762:AZD8186	4.5	0.3	4.6	0.7	reliable	20.923
647V_AZD7762:Saracatinib	0.2	0.2	0.4	0.4	reliable	-16.322
UMUC3_AZ12618466:Selumetinib	0.3	0.3	1.2	1.2	reliable	1.77
UMUC3_AZ12618466:Vorinostat	1	0	1	0	no synergy	1.281
HT1197_AZD7762:Pictilisib	55.2	55.2	57.9	57.9	reliable	-18.18
HT1197_AZD7762:Sapitinib	0	0	0	0	no synergy	-12.723
HT1197_AZD7762:Saracatinib	0.2	0.1	1.7	1.7	reliable	-21.781
NCIH1703_AZD7762:AZ13250285	45.8	45.8	45.8	45.8	reliable	-8.746
TCCSUP_AZ13535704:Sapitinib	0	0	0	0	no synergy	24.409
TCCSUP_AZ13535704:AZD8186	18.2	4.9	18.2	4.9	reliable	16.142
TCCSUP_AZ13535704:Pictilisib	19.9	0	19.9	0	no synergy	15.232
TCCSUP_AZ13535704:Saracatinib	0.3	0	0.3	0	reliable	5.93
MDAMB231_Olaparib:AZD8186	1.3	1	5.6	1	reliable	12.765
MDAMB231_Olaparib:Pictilisib	1.9	1.9	10.9	3	reliable	21.375
UMUC3_Ceralasertib:AZD7762	92.1	92.1	92.1	92.1	reliable	77.55
UMUC3_Ceralasertib:Olaparib	9.3	4.6	9.3	4.6	uncertain	34.428
HT1376_AZ13535704:Selumetinib	1	1	1	1	reliable	48.517
HT1376_AZ13535704:Vorinostat	2.7	0.6	2.7	1	reliable	2.927
UMUC3_AZD7762:Vorinostat	1	0	1	0	no synergy	-2.644
UMUC3_AZD7762:Selumetinib	0	0	0.1	0	no synergy	-13.543
VMCUB1_Ceralasertib:AZD7762	34.2	34.2	34.2	34.2	reliable	-139.757
MDAMB157_Ceralasertib:AZD7762	39	39	39	39	reliable	31.251
BFTC905_AZ13535704:Ceralasertib	89.2	89.2	91.3	91.3	reliable	20.524
BFTC905_AZ13535704:AZD7762	91.3	91.3	91.3	91.3	reliable	-49.75
BFTC905_AZ13535704:Olaparib	1.5	1.5	3.5	3.5	uncertain	13.85
SW780_AZ13535704:Selumetinib	9.4	0	9.5	0	no synergy	-43.846
SW780_AZ13535704:Vorinostat	5.8	4.6	5.8	4.6	reliable	17.482
T24_AZD7762:Vorinostat	1	0.3	1	0.3	reliable	-18.48
T24_AZD7762:Selumetinib	0	0	0.4	0.4	reliable	13.243
T47D_AZD7762:Regorafenib	0	0	0	0	no synergy	-36.961
T47D_AZD7762:Temsirolimus	0	0	0	0	no synergy	-29.77
CAL148_Ceralasertib:Selumetinib	0	0	0	0	reliable	-11.956
HCC1419_Ceralasertib:AZD7762	56.4	56.4	56.4	56.4	reliable	31.563
HT1376_Ceralasertib:AZD7762	97.3	97.3	97.3	97.3	reliable	29.287
CAL148_Ceralasertib:Pictilisib	0.3	0	0.4	0	no synergy	-11.039
CAL148_Ceralasertib:AZD8186	0.3	0	0.3	0	reliable	-16.17
NCIH1793_Ceralasertib:AZD7762	60	60	60	60	reliable	63.01
UACC812_AZD7762:Vorinostat	3.8	3.8	4.5	4.5	reliable	-8.993
UACC812_AZD7762:Trametinib	2.6	2.5	12.1	2.5	reliable	23.708
UACC812_AZD7762:Carfilzomib	0	0	0.8	0.8	reliable	3.198
UACC812_AZD7762:Idelalisib	0	0	0	0	no synergy	0.412
UACC812_AZD7762:Lonafarnib	0	0	0	0	no synergy	-42.536
UACC812_AZD7762:Tamoxifen	0.6	0.6	1.4	1.4	reliable	-11.382
UACC812_AZD7762:Everolimus	0	0	0	0	no synergy	-35.209
HT29_AZ13135223:AZD7762	1.1	1.1	1.1	1.1	reliable	68.711
HCC38_Ceralasertib:Selumetinib	3	3	3	3	reliable	70.786
647V_AZ12618466:Ceralasertib	91	91	91	91	reliable	36.488
647V_AZ12618466:Olaparib	56.8	56.8	61.7	61.7	reliable	41.353
647V_AZ12618466:AZD7762	58.8	58.8	59.2	59.2	reliable	-10.983
A549_Ceralasertib:AZD7762	90.7	90.7	90.7	90.7	reliable	50.442
CALU6_Ceralasertib:AZD7762	59.1	59.1	59.1	59.1	reliable	44.406
SW780_Ceralasertib:Vorinostat	0.1	0	0.1	0	reliable	17.074
SW780_Ceralasertib:Selumetinib	0	0	0	0	no synergy	-18.098
NCIH838_Ceralasertib:AZD7762	1.7	1.7	1.7	1.7	reliable	56.686
TCCSUP_Ceralasertib:Sapitinib	0	0	0	0	no synergy	-2.712
TCCSUP_Ceralasertib:Pictilisib	24.6	18.9	24.7	19	reliable	-6.698
TCCSUP_Ceralasertib:Saracatinib	5.3	1.2	5.3	1.2	reliable	13.389
TCCSUP_Ceralasertib:AZD8186	19.3	18.7	21.9	18.8	reliable	4.902
MDAMB157_Ceralasertib:Selumetinib	0.1	0	0.1	0	reliable	15.216
MDAMB361_AZD7762:Vorinostat	0	0	0	0	no synergy	-11.962
MDAMB361_AZD7762:Trametinib	0	0	0.1	0	no synergy	43.769
MDAMB361_AZD7762:Carfilzomib	0	0	0	0	reliable	-4.13
MDAMB361_AZD7762:Idelalisib	0	0	0	0	no synergy	0.438
MDAMB361_AZD7762:Lonafarnib	0	0	0	0	no synergy	-2.765
MDAMB361_AZD7762:Tamoxifen	0	0	0	0	no synergy	8.404
MDAMB361_AZD7762:Everolimus	0	0	0	0	no synergy	31.647
T24_AZD7762:Olaparib	0	0	0.7	0.7	no synergy	5.066
J82_AZ12618466:Ceralasertib	90.7	90.7	90.7	90.7	uncertain	32.313
J82_AZ12618466:Olaparib	1	1	1	1	uncertain	40.917
J82_AZ12618466:AZD7762	91.8	91.8	91.8	91.8	reliable	-4.832
HCC1937_Olaparib:AZD8186	5.9	3.8	12.1	3.8	reliable	26.994
HCC1937_Olaparib:Pictilisib	20.5	20.5	20.5	20.5	reliable	12.506
CALU6_AZD7762:AZ13250285	88.3	88.3	88.3	88.3	reliable	-33.282
NCIH522_Ceralasertib:AZD7762	87.9	87.9	87.9	87.9	reliable	39.985
NCIH2085_AZD7762:AZ13250285	91.7	91.7	91.7	91.7	reliable	-30.28
647V_AZ12618466:Selumetinib	62	62	67.5	67.5	reliable	4.898
647V_AZ12618466:Vorinostat	2.8	1	2.8	1.2	reliable	-3.698
UMUC3_AZD7762:Pictilisib	0.1	0	0.1	0	no synergy	-4.82
UMUC3_AZD7762:Sapitinib	0	0	0	0	no synergy	-5.173
UMUC3_AZD7762:AZD8186	0.1	0	0.1	0	no synergy	12.802
UMUC3_AZD7762:Saracatinib	0.2	0	0.2	0	no synergy	-33.245
HCC1395_Ceralasertib:Selumetinib	1.9	0	1.9	0	no synergy	3.645
C32_AZD7762:Selumetinib	0	0	0	0	no synergy	-4.067
647V_AZ13535704:Sapitinib	0	0	0	0	no synergy	6.036
647V_AZ13535704:AZD8186	0	0	0.1	0.1	reliable	21.788
647V_AZ13535704:Pictilisib	0.9	0.9	0.9	0.9	reliable	-0.794
647V_AZ13535704:Saracatinib	0.1	0.1	0.1	0.1	reliable	1.525
CAMA1_Ceralasertib:Pictilisib	59	59	59	59	reliable	-43.027
CAMA1_Ceralasertib:AZD8186	58.3	58.3	58.3	58.3	reliable	-19.239
SW900_Ceralasertib:AZD7762	58.9	58.9	58.9	58.9	reliable	50.369
T24_AZ12618466:Ceralasertib	88.9	88.9	88.9	88.9	reliable	89.079
T24_AZ12618466:Olaparib	13.7	9.5	13.7	9.6	uncertain	129.445
T24_AZ12618466:AZD7762	89.1	89.1	89.1	89.1	reliable	9.758
T24_Ceralasertib:Vorinostat	1	0	1	0	no synergy	-33.447
T24_Ceralasertib:Selumetinib	0.2	0	0.3	0	no synergy	-12.311
UMUC3_AZ12618466:Ceralasertib	92.1	92.1	92.1	92.1	uncertain	55.771
UMUC3_AZ12618466:Olaparib	19.6	16.7	19.6	16.7	uncertain	89.153
UMUC3_AZ12618466:AZD7762	90.3	90.3	90.3	90.3	reliable	11.062
NCIH2228_Ceralasertib:AZD7762	2.2	2.2	2.2	2.2	reliable	25.532
BFTC905_AZ12618466:Ceralasertib	95.1	95.1	95.1	95.1	reliable	20.524
BFTC905_AZ12618466:Olaparib	1.5	1.5	2.4	2.4	uncertain	13.85
BFTC905_AZ12618466:AZD7762	90.3	90.3	90.3	90.3	reliable	-49.75
HCC1500_AZD7762:Trametinib	2.9	0	4.3	0	no synergy	56.398
HCC1500_AZD7762:Carfilzomib	0.2	0	0.8	0	no synergy	5.217
HCC1500_AZD7762:Idelalisib	0	0	0	0	no synergy	10.265
HCC1500_AZD7762:Lonafarnib	0	0	0	0	no synergy	10.189
HCC1500_AZD7762:Tamoxifen	0	0	0	0	no synergy	24.535
HCC1500_AZD7762:Everolimus	0	0	0	0	no synergy	16.344
VMCUB1_Ceralasertib:Vorinostat	0.3	0.3	2.8	1.2	reliable	-42.215
VMCUB1_Ceralasertib:Selumetinib	2.5	1.4	3.7	1.4	reliable	-12.778
VMCUB1_AZ12618466:Selumetinib	5.6	0.1	5.9	0.1	reliable	11.127
VMCUB1_AZ12618466:Vorinostat	8.6	3	8.6	4.7	reliable	59.745
CAL120_Ceralasertib:Selumetinib	10.3	10.3	10.3	10.3	reliable	-1.899
UMUC3_AZ13535704:Selumetinib	1.1	0	1.1	0	no synergy	1.77
UMUC3_AZ13535704:Vorinostat	3	2.3	3	2.3	reliable	1.281
HCC70_Olaparib:AZD8186	1.5	1.3	7.3	1.3	reliable	1.029
HCC70_Olaparib:Pictilisib	3.3	3.3	11.8	11.8	reliable	12.114
SW620_AZD7762:Selumetinib	14.1	13.8	14.3	14	reliable	-23.923
HT1376_Ceralasertib:Vorinostat	2.7	0.5	2.7	0.5	reliable	-47.119
HT1376_Ceralasertib:Selumetinib	0	0	0	0	no synergy	-3.189
J82_Ceralasertib:AZD7762	91.8	91.8	91.8	91.8	reliable	13.933
J82_Ceralasertib:Olaparib	3.9	2.1	4.3	2.1	uncertain	11.974
SW837_AZ13242274:Selumetinib	8.4	0	8.4	1.1	reliable	-9.889
TCCSUP_Olaparib:Saracatinib	1	0.5	1.2	1.2	reliable	8.235
TCCSUP_Olaparib:AZD8186	7.9	1.9	18	17.3	reliable	42.807
TCCSUP_Olaparib:Pictilisib	14	1.9	25.4	2.8	reliable	8.96
NCIH1437_Ceralasertib:AZD7762	30.1	30.1	30.1	30.1	reliable	45.694
VMCUB1_Ceralasertib:Pictilisib	22.4	22.4	23.4	23.4	reliable	3.683
VMCUB1_Ceralasertib:AZD8186	26.1	26.1	27.1	27.1	reliable	-16.856
BFTC905_Ceralasertib:Sapitinib	0	0	0	0	no synergy	19.727
BFTC905_Ceralasertib:Pictilisib	1.7	1.2	3.3	3.3	reliable	0.65
BFTC905_Ceralasertib:Saracatinib	0	0	1.2	1.2	reliable	-11.943
BFTC905_Ceralasertib:AZD8186	1.5	1.5	2.7	2.5	reliable	0.719
HS578T_Olaparib:AZD8186	0.1	0	13.6	1	reliable	-26.43
HS578T_Olaparib:Pictilisib	0.2	0	5.9	1	reliable	-4.668
SW780_Ceralasertib:Olaparib	7.8	7.8	7.8	7.8	uncertain	-45.261
SW620_AZD7762:Olaparib	0.3	0.3	1.2	1.2	uncertain	21.039
SW780_AZ12618466:Selumetinib	8	0.5	8.1	0.9	reliable	-43.846
SW780_AZ12618466:Vorinostat	0.9	0.9	0.9	0.9	reliable	17.482
TCCSUP_AZ13535704:Ceralasertib	76.6	76.6	76.6	76.6	reliable	21.513
TCCSUP_AZ13535704:AZD7762	79.8	79.8	79.8	79.8	reliable	8.385
TCCSUP_AZ13535704:Olaparib	8.2	8.2	8.2	8.2	uncertain	46.463
NCIH23_Ceralasertib:AZD7762	57.7	57.7	57.7	57.7	reliable	42.183
647V_AZ13535704:Selumetinib	13.4	6.9	13.4	6.9	reliable	4.898
647V_AZ13535704:Vorinostat	2.8	0	2.8	0.2	reliable	-3.698
MDAMB361_AZD7762:AZD1775	95.2	95.2	95.2	95.2	reliable	41.991
MDAMB361_AZD7762:Crizotinib	0.6	0.6	1.7	0.6	reliable	-3.609
UMUC3_AZ12618466:Pictilisib	1.2	0.2	7.7	1.1	uncertain	-1.446
UMUC3_AZ12618466:Saracatinib	1	1	1	1	reliable	-10.774
UMUC3_AZ12618466:AZD8186	2.3	1	6.7	1	reliable	8.323
UMUC3_AZ12618466:Sapitinib	0.1	0	0.1	0	no synergy	13.347
NCIH2170_Ceralasertib:AZD7762	62.3	62.3	62.3	62.3	reliable	78.391
HT1376_AZ12618466:Selumetinib	0.9	0.9	0.9	0.9	reliable	48.517
HT1376_AZ12618466:Vorinostat	2.5	1.6	2.5	1.6	reliable	2.927
HCC1428_Ceralasertib:Selumetinib	0	0	0	0	no synergy	-13.146
HCC1937_Ceralasertib:Selumetinib	9.2	0	9.2	0	no synergy	-37.839
T24_Ceralasertib:Sapitinib	0	0	0	0	no synergy	-9.376
T24_Ceralasertib:Pictilisib	0.3	0	1.2	0	no synergy	-19.231
T24_Ceralasertib:Saracatinib	0.7	0.7	0.7	0.7	reliable	-0.469
T24_Ceralasertib:AZD8186	9.8	0	10	0	no synergy	8.619
UMUC3_Ceralasertib:Vorinostat	1	1	1	1	reliable	-0.755
UMUC3_Ceralasertib:Selumetinib	1.1	0	1.1	0	no synergy	-10.44
BT549_Ceralasertib:Pictilisib	13.7	0	14.2	0	reliable	-16.642
BT549_Ceralasertib:AZD8186	13.2	0	13.7	0	no synergy	-34.887
BFTC905_AZD7762:Sapitinib	0	0	0	0	no synergy	42.187
BFTC905_AZD7762:AZD8186	0	0	0.3	0	no synergy	-28.011
A549_AZD7762:AZ13250285	89.8	89.8	89.8	89.8	reliable	6.678
NCIH1975_Ceralasertib:AZD7762	89.2	89.2	89.2	89.2	reliable	12.78
HT1197_Ceralasertib:Sapitinib	0	0	0	0	no synergy	-5.088
HT1197_Ceralasertib:Pictilisib	14.3	0.6	14.4	0.6	reliable	-20.58
HT1197_Ceralasertib:AZD8186	2	0.6	13.5	0.6	reliable	-4.37
HCC1143_Ceralasertib:Selumetinib	0	0	0	0	reliable	-32.067
T24_Olaparib:Saracatinib	0.2	0.2	2.1	0.9	reliable	-0.491
T24_Olaparib:AZD8186	0	0	2.1	2.1	reliable	0.277
T24_Olaparib:Pictilisib	0.1	0.1	2.3	2.3	reliable	-20.877
KU1919_AZ13535704:Ceralasertib	39.7	39.7	40.6	40.6	uncertain	49.341
KU1919_AZ13535704:Olaparib	13.9	13.9	15.6	15.6	reliable	53.029
VMCUB1_AZ12618466:Ceralasertib	80.5	80.5	82.2	82.2	reliable	24.847
VMCUB1_AZ12618466:Olaparib	14.5	14.5	14.5	14.5	uncertain	-17.034
VMCUB1_AZ12618466:AZD7762	83.2	83.2	83.2	83.2	reliable	-0.535
UMUC3_AZ13535704:Sapitinib	0.4	0.4	0.4	0.4	reliable	13.347
UMUC3_AZ13535704:AZD8186	49.7	49.7	50.3	50.3	reliable	8.323
UMUC3_AZ13535704:Pictilisib	54.1	54.1	56.3	56.3	reliable	-1.446
UMUC3_AZ13535704:Saracatinib	1	1	1	1	reliable	-10.774
J82_Ceralasertib:Sapitinib	0	0	0	0	no synergy	13.207
J82_Ceralasertib:Pictilisib	1.1	0	8.3	0	no synergy	-17.426
J82_Ceralasertib:Saracatinib	1	1	1	1	reliable	-11.637
J82_Ceralasertib:AZD8186	5.1	0	8.3	0	no synergy	-3.908
MDAMB415_Ceralasertib:AZD7762	51.2	51.2	51.2	51.2	reliable	36.028
TCCSUP_AZ12618466:Selumetinib	14.9	14.9	14.9	14.9	reliable	5.975
TCCSUP_AZ12618466:Vorinostat	1.9	1.9	1.9	1.9	reliable	8.384
HCC1500_Olaparib:Regorafenib	0	0	0	0	reliable	17.751
HCC1500_Olaparib:Enzastaurin	0.3	0.3	2.2	2.2	reliable	22.405
HCC1500_Olaparib:Voxtalisib	0	0	2.2	0	no synergy	-23.527
MDAMB361_Ceralasertib:AZD7762	61.5	61.5	61.5	61.5	reliable	15.901
MDAMB175VII_AZD7762:Carfilzomib	0	0	0.5	0	no synergy	-6.491
HCC1187_Ceralasertib:Gefitinib	31.8	31.8	31.8	31.8	reliable	-25.39
TCCSUP_AZ12618466:Ceralasertib	83.5	83.5	83.5	83.5	reliable	21.513
TCCSUP_AZ12618466:Olaparib	9.4	9.4	9.4	9.4	uncertain	46.463
TCCSUP_AZ12618466:AZD7762	85.4	85.4	85.4	85.4	reliable	8.385
BFTC905_Olaparib:Saracatinib	0.2	0.2	1	0.6	reliable	-20.431
BFTC905_Olaparib:AZD8186	7.2	7.2	9.7	7.8	reliable	37.33
BFTC905_Olaparib:Pictilisib	6.4	6.4	7.8	7.8	reliable	59.578
SW780_AZ13535704:Olaparib	12.1	9.9	12.1	9.9	reliable	-30.255
NCIH1975_AZD7762:AZ13250285	87.3	87.3	87.3	87.3	reliable	5.984
SW837_AZD7762:Olaparib	0	0	1.2	0.8	no synergy	10.397
647V_AZD7762:Vorinostat	1.4	0.1	1.4	0.2	reliable	-0.884
647V_AZD7762:Selumetinib	37.1	37.1	37.4	37.4	reliable	-16.6
HCC1419_Olaparib:Regorafenib	4.1	0.4	17.5	14.2	uncertain	-17.963
647V_Ceralasertib:Sapitinib	0	0	0	0	no synergy	-17.202
647V_Ceralasertib:Pictilisib	8.6	8.6	8.6	8.6	reliable	-8.555
647V_Ceralasertib:Saracatinib	2.2	0.2	2.3	1.2	reliable	-36.474
647V_Ceralasertib:AZD8186	5.4	5.4	5.4	5.4	reliable	11.946
CAL120_Olaparib:AZD8186	3.2	2.6	3.4	3.1	reliable	7.779
CAL120_Olaparib:Pictilisib	22.6	13.5	22.6	13.5	reliable	11.365
TCCSUP_AZD7762:Olaparib	3.3	2.1	3.8	2.7	uncertain	10.356
BT549_Olaparib:AZD8186	5.9	5.5	9.1	9.1	reliable	22.962
BT549_Olaparib:Pictilisib	1.1	1	3.2	3.1	reliable	20.025
C32_AZ13242274:Selumetinib	0	0	0	0	reliable	18.649
UACC812_Olaparib:Regorafenib	1.6	1.6	6.6	6.6	reliable	1.453
UACC812_Olaparib:Enzastaurin	0.3	0.2	2.9	1.2	reliable	-5.614
UACC812_Olaparib:Voxtalisib	0.2	0.2	0.2	0.2	reliable	-0.811
CAMA1_AZD7762:Regorafenib	0.2	0	0.2	0	no synergy	10.547
CAMA1_AZD7762:Temsirolimus	0	0	0.8	0	no synergy	23.844
CAMA1_AZD7762:Enzastaurin	0	0	0.1	0	reliable	16.54
647V_AZ12618466:Pictilisib	60.1	60.1	61.3	61.3	reliable	-0.794
647V_AZ12618466:Saracatinib	0.2	0.2	1	1	reliable	1.525
647V_AZ12618466:AZD8186	59.5	59.5	60.7	60.7	reliable	21.788
647V_AZ12618466:Sapitinib	0	0	0	0	no synergy	6.036
NCIH2228_AZD7762:AZ13250285	70.7	70.7	70.7	70.7	reliable	-25.153
DU4475_Ceralasertib:Pictilisib	0.9	0	0.9	0	reliable	28.301
C32_AZ13242274:AZD7762	0	0	0	0	no synergy	46.607
VMCUB1_AZD7762:Sapitinib	0	0	0	0	no synergy	29.024
VMCUB1_AZD7762:AZD8186	6.6	6.5	7	6.9	reliable	-22.708
UACC812_Olaparib:AZD1775	0.8	0	7.4	0	reliable	-6.719
HCC70_Ceralasertib:Pictilisib	12.4	1.7	13.3	1.7	reliable	3.777
HCC70_Ceralasertib:AZD8186	12.8	0	12.8	0	no synergy	2.04
MDAMB468_Ceralasertib:Pictilisib	0.5	0	0.5	0	reliable	-1.142
MDAMB468_Ceralasertib:AZD8186	0.1	0.1	0.1	0.1	reliable	11.055
BFTC905_AZ12618466:Selumetinib	2	0	4.1	0	reliable	18.933
BFTC905_AZ12618466:Vorinostat	2.3	2.3	2.3	2.3	reliable	28.497
647V_AZD7762:Olaparib	41.2	41.2	41.4	41.4	reliable	42.126
NCIH1437_AZD7762:AZ13250285	57.6	57.6	57.6	57.6	reliable	85.008
T47D_AZD7762:Trametinib	0	0	0	0	no synergy	-11.2
HCC1187_Ceralasertib:Pictilisib	1.4	0	2.6	0	no synergy	4.736
HCC1187_Ceralasertib:AZD8186	0.6	0	2.6	0	no synergy	-1.054
647V_Ceralasertib:AZD7762	9.5	9.5	9.5	9.5	reliable	66.191
647V_Ceralasertib:Olaparib	59.1	59.1	59.1	59.1	reliable	24.722
MDAMB231_Ceralasertib:Pictilisib	4.1	0.8	8	0.8	reliable	-22.183
MDAMB231_Ceralasertib:AZD8186	4.3	0.8	4.3	0.8	reliable	-25.44
SW780_Ceralasertib:Sapitinib	0	0	0	0	no synergy	-44.942
SW780_Ceralasertib:Pictilisib	9.4	0	9.9	0	no synergy	-18.901
SW780_Ceralasertib:AZD8186	8.5	0.2	8.8	0.2	reliable	-45.013
SW620_AZ13242274:AZD7762	2.4	2.4	2.4	2.4	reliable	83.386
NCIH520_Ceralasertib:AZD7762	59	59	59	59	reliable	48.713
TCCSUP_AZ12618466:Pictilisib	23.1	12.4	23.1	12.5	reliable	15.232
TCCSUP_AZ12618466:Saracatinib	1.4	1.4	1.4	1.4	reliable	5.93
TCCSUP_AZ12618466:AZD8186	20.7	14.7	20.7	14.7	reliable	16.142
TCCSUP_AZ12618466:Sapitinib	0	0	0	0	no synergy	24.409
HCC70_Ceralasertib:AZD7762	54.5	54.5	54.5	54.5	reliable	31.894
NCIH1299_AZD7762:AZ13250285	84.4	84.4	84.4	84.4	reliable	-39.805
SW837_AZ13242274:AZD7762	0.3	0.3	0.3	0.3	reliable	36.948
HT1197_AZD7762:Olaparib	0.7	0	7.2	0.4	uncertain	5.789
SW620_AZ13242274:Selumetinib	0	0	0	0	no synergy	16.858
TCCSUP_Ceralasertib:Vorinostat	0.3	0	0.3	0	no synergy	9.202
TCCSUP_Ceralasertib:Selumetinib	19.4	18.8	19.4	18.8	reliable	0.508
MDAMB436_Ceralasertib:Pictilisib	2.5	1	2.6	2.1	reliable	4.027
MDAMB436_Ceralasertib:AZD8186	0.7	0.7	2.5	1.8	reliable	4.436
MDAMB468_Ceralasertib:AZD7762	66.4	66.4	66.4	66.4	reliable	33.278
647V_Ceralasertib:Vorinostat	4	0.2	4	0.2	reliable	-19.955
647V_Ceralasertib:Selumetinib	61.6	61.6	61.6	61.6	reliable	-7.1
T24_AZ13535704:Ceralasertib	69	69	69	69	reliable	89.079
T24_AZ13535704:AZD7762	87.5	87.5	87.5	87.5	reliable	9.758
T24_AZ13535704:Olaparib	12	7.4	12.8	9.5	reliable	129.445
BFTC905_Ceralasertib:Vorinostat	0	0	0.9	0.9	no synergy	-24.899
BFTC905_Ceralasertib:Selumetinib	0	0	1.3	0	reliable	-25.507
NCIH838_AZD7762:AZ13250285	90.2	90.2	90.2	90.2	reliable	-24.948
NCIH2170_AZ13401366:AZ13250285	81.6	81.6	85.1	85.1	reliable	34.00244
T47D_AZD1775:Capivasertib	93.3	62.9	93.3	62.9	reliable	-0.8147848
T47D_AZD1775:Sapitinib	0	0	0	0	no synergy	25.53856
T24_AZD7762:Capivasertib	0	0	0.3	0.3	no synergy	-5.331582
HCC1143_Ceralasertib:Capivasertib	0	0	0	0	no synergy	-35.35206
HCC1419_Olaparib:Lonafarnib	0	0	0	0	no synergy	-5.159402
HCC1419_Olaparib:Obatoclax	0	0	3.8	2.8	reliable	9.391221
HCC1419_Olaparib:Everolimus	0	0	0	0	no synergy	23.90399
HCC1419_Olaparib:Tamoxifen	0.3	0.3	0.5	0.5	reliable	-0.1039816
HCC1419_Olaparib:Trametinib	3.1	0	18.2	1.2	reliable	6.775736
HCC1419_Olaparib:Perifosine	1	0.1	6.1	3.1	reliable	2.425067
HCC1419_Olaparib:Vorinostat	0	0	0	0	no synergy	-24.28504
NCIH1975_AZ13401366:AZ13250285	85.9	85.9	87.4	87.4	reliable	37.66769
HCC1428_Olaparib:Selumetinib	9	6.7	9	6.7	reliable	9.490913
HCC1806_Olaparib:Capivasertib	5.5	0.5	24.5	10	reliable	64.30439
MDAMB175VII_Olaparib:CHIR265	1	0	1	0	reliable	-27.29589
NCIH522_Olaparib:AZ13250285	2.2	2.2	16.2	16.2	reliable	12.85258
UMUC3_Ceralasertib:Capivasertib	7.1	0	7.1	0	no synergy	-0.9140716
HCC1143_AZ13590108:Pictilisib	17	15.7	17.9	16.6	reliable	-0.1513328
HCC1143_AZ13590108:AZD8186	14.4	11.6	15.3	12.5	reliable	15.75368
HCC1143_AZ13590108:Capivasertib	17	15.7	17.9	16.6	reliable	11.85188
SW837_Olaparib:Selumetinib	10.2	1.2	10.5	2.1	reliable	10.42186
HCC1937_Olaparib:Selumetinib	7.4	5.8	7.4	5.8	reliable	14.84472
UACC812_AZD7762:GDC0879	2.9	1.7	2.9	2.4	reliable	-8.267784
UACC812_AZD7762:Navitoclax	32.3	0.2	36.2	0.9	reliable	-14.38858
HT29_AZ13150560:Selumetinib	0.1	0	1.1	0	no synergy	32.23027
DU4475_Olaparib:Capivasertib	15.5	15.5	20	20	reliable	39.02827
T47D_Olaparib:Lonafarnib	0	0	0	0	no synergy	-14.41548
T47D_Olaparib:Everolimus	0	0	0	0	no synergy	2.724216
T47D_Olaparib:Tamoxifen	0.7	0.7	5.5	5.5	reliable	14.79945
T47D_Olaparib:Trametinib	12.5	10.2	18.7	18.7	reliable	-2.699192
T47D_Olaparib:Perifosine	13.9	7	17.6	16.4	reliable	18.83888
T47D_Olaparib:Vorinostat	0.8	0.6	4.4	4.4	reliable	-373361
CAL120_Ceralasertib:Capivasertib	46.5	46.5	46.5	46.5	reliable	-14.47733
HCC1395_Olaparib:Selumetinib	5.4	4.2	5.6	4.5	reliable	4.413948
647V_Olaparib:Selumetinib	45.4	45.4	61.7	61.7	reliable	29.54453
647V_Olaparib:Vorinostat	2.5	2.5	2.7	2.7	reliable	17.14573
HT1197_AZ13535704:Capivasertib	1.5	0.9	1.6	0.9	reliable	7.861261
CAL120_AZ13590108:Pictilisib	54.9	54.9	54.9	54.9	reliable	15.33097
CAL120_AZ13590108:AZD8186	53	53	53	53	reliable	14.6892
CAL120_AZ13590108:Capivasertib	54.4	54.4	54.4	54.4	reliable	27.21609
NCIH23_AZ13401366:AZ13250285	88	88	88	88	reliable	41.39808
SW620_AZ12594248:Selumetinib	3.8	0	3.9	0	no synergy	38.72374
HT1376_Olaparib:Capivasertib	0.1	0	4.2	0	reliable	7.609149
HT1376_Olaparib:Sapitinib	0	0	0	0	reliable	4.69115
CAMA1_AZD7762:CHIR265	0	0	0	0	no synergy	-58.97005
HCC70_AZ13590108:Pictilisib	29.5	29.5	30.8	30.8	reliable	-0.471258
HCC70_AZ13590108:AZD8186	30.2	30.2	30.2	30.2	reliable	29.35915
HCC70_AZ13590108:Capivasertib	53.2	53.2	54.4	54.4	reliable	20.43694
HT1376_AZ12618466:Capivasertib	0	0	1	0	no synergy	3.344934
HCC1395_AZ13590108:Pictilisib	14.7	13.7	15.1	14.2	uncertain	1.862107
HCC1395_AZ13590108:AZD8186	13.7	13.7	14.2	14.2	uncertain	3.065462
HCC1395_AZ13590108:Capivasertib	13.7	13.7	14.2	14.2	uncertain	0.3442706
NCIH2085_Ceralasertib:AZ13361171	82.3	82.3	83.1	83.1	reliable	17.0229
MDAMB361_AZD7762:GDC0879	0.1	0	0.6	0	no synergy	-8.660828
MDAMB361_AZD7762:Navitoclax	28.4	0	33.4	0	no synergy	16.28972
NCIH520_AZ13401366:AZ13250285	89.4	89.4	90.4	90.4	reliable	63.46191
NCIH226_AZD7762:AZ13453720	2.1	2.1	3	3	reliable	-29.9892
NCIH226_AZD7762:AZ13453202	4.5	4.5	4.5	4.5	reliable	29.34822
HCC1187_Olaparib:Selumetinib	5.8	3.3	5.8	3.3	reliable	25.77168
SW837_AZ13150560:Selumetinib	13.3	13.3	13.5	13.5	reliable	41.03738
CAMA1_AZD7762:Obatoclax	1	0	1	0	no synergy	29.26177
HCC1187_Olaparib:Capivasertib	13.2	13.2	13.7	13.7	reliable	30.95134
BFTC905_AZ13535704:Capivasertib	5.7	0.1	9.4	1.7	reliable	70.72939
HT1376_AZ13535704:Capivasertib	1	1	1	1	reliable	3.344934
MDAMB361_Olaparib:Crizotinib	9.6	9.6	13	13	reliable	-8.534224
MDAMB361_Olaparib:CHIR265	0.7	0.1	2.4	2.4	reliable	-14.22186
J82_AZ12618466:Capivasertib	54.7	54.7	56.6	56.6	reliable	-0.8546143
SW780_AZ13535704:Capivasertib	10.3	0	10.7	0	no synergy	-12.32869
HCC1806_AZ13590108:Selumetinib	0	0	0	0	no synergy	19.84526
HT1376_Olaparib:Selumetinib	4.3	1.1	4.3	1.1	reliable	11.52374
HT1376_Olaparib:Vorinostat	0.2	0.2	0.5	0.5	reliable	-5.843584
MDAMB157_Olaparib:Capivasertib	0.7	0	8.3	0	no synergy	44.35351
A549_Ceralasertib:AZ13361171	91.4	91.4	91.4	91.4	uncertain	10.19594
T47D_Olaparib:GDC0879	0.2	0.2	0.2	0.2	reliable	8.534069
T47D_Olaparib:Temsirolimus	0.9	0.1	1.1	1.1	reliable	-1.810637
MDAMB157_AZ13590108:Pictilisib	51.8	51.8	52.6	52.6	reliable	-2.475411
MDAMB157_AZ13590108:AZD8186	50.5	50.5	50.5	50.5	reliable	1.742103
MDAMB157_AZ13590108:Capivasertib	51.1	51.1	51.1	51.1	reliable	13.26256
NCIH23_Olaparib:AZ13250285	1.4	0	18.8	0	reliable	-0.7857025
CAMA1_Olaparib:Capivasertib	1.1	0	5.1	1	reliable	25.22855
CAMA1_Olaparib:Temsirolimus	1.4	0	13	0	no synergy	-7.350246
CAL148_AZ13590108:Selumetinib	2.1	1	5	1.7	reliable	34.97415
BT20_AZ13590108:Selumetinib	7.7	0.4	8	1.4	reliable	9.632432
SW780_AZ12618466:Capivasertib	9.6	0.1	9.9	1	reliable	-12.32869
HCC1500_AZD1775:Capivasertib	19.4	0.1	21.1	0.5	reliable	-3.918719
HCC1500_AZD1775:Sapitinib	0	0	0	0	no synergy	11.47789
MDAMB231_AZ13590108:Selumetinib	7.6	4	7.7	5	reliable	16.03991
CAL148_AZ13590108:Pictilisib	11.8	1.9	14	5.9	reliable	9.367304
CAL148_AZ13590108:AZD8186	0.7	0.7	1.6	1.6	reliable	-8.93609
CAL148_AZ13590108:Capivasertib	43.2	2.9	45.3	6.9	reliable	11.96001
NCIH23_AZD7762:AZ13453720	10.1	10.1	10.2	10.2	reliable	-34.82657
NCIH23_AZD7762:AZ13453202	23.7	23.7	23.7	23.7	reliable	-8.899637
HCC38_Ceralasertib:Capivasertib	33.9	32	36.8	33.8	uncertain	-36.16691
HCC1428_Olaparib:Capivasertib	20.6	20.6	23.6	23.6	reliable	-24.94878
CALU6_Olaparib:AZ13250285	0.2	0.1	4.6	0.8	reliable	2.688716
VMCUB1_Olaparib:Capivasertib	1	0	4.3	1.2	reliable	-6.660522
T47D_AZD1775:Gefitinib	95.8	95.8	95.8	95.8	reliable	-20.75814
CAL120_Olaparib:Selumetinib	4	0.9	4	0.9	reliable	-18.07161
DU4475_Olaparib:Selumetinib	5.7	4.4	8	5.9	reliable	26.75245
CAL148_Olaparib:Selumetinib	8.1	0	26.6	0	no synergy	26.62077
BT20_AZ13590108:Pictilisib	22.6	22.6	24.5	24.5	reliable	0.6099021
BT20_AZ13590108:AZD8186	22.2	22.2	23.1	23.1	reliable	2.139844
BT20_AZ13590108:Capivasertib	22.2	17	23.1	18	reliable	5.638287
J82_AZD7762:Capivasertib	5.9	0	8.3	0	no synergy	-26.43081
HCC1395_Ceralasertib:Capivasertib	32.9	0	33.3	0.6	uncertain	-1.068869
MDAMB361_AZD1775:Vandetanib	0.2	0.2	0.2	0.2	reliable	1.881745
MDAMB361_AZD1775:Gefitinib	95.3	95.3	95.3	95.3	reliable	1.309756
T24_AZ12618466:Capivasertib	10.9	0	11.7	1.2	reliable	-0.8014533
HCC1143_Olaparib:Selumetinib	4.5	1.1	4.8	1.9	reliable	21.89939
UACC812_AZD7762:CHIR265	1.7	1.7	2.5	2.5	reliable	-14.3684
NCIH2228_AZ13401366:AZ13250285	80	80	80.9	80.9	reliable	15.54193
CAL148_Olaparib:Capivasertib	13	12.8	24.2	16.5	reliable	51.65418
MDAMB231_AZ13590108:Pictilisib	31.3	31.3	32	32	reliable	10.29131
MDAMB231_AZ13590108:AZD8186	21.2	21.2	21.2	21.2	reliable	14.18614
MDAMB231_AZ13590108:Capivasertib	26	26	26	26	reliable	13.39888
NCIH1437_AZ13401366:AZ13250285	87.3	87.3	88.2	88.2	reliable	33.38422
J82_AZ13535704:Capivasertib	7.7	0	8.2	1	reliable	-0.8546143
CALU3_AZD7762:AZ13453720	7.2	0	7.5	0	no synergy	-51.06634
HCC1500_Olaparib:Crizotinib	6.4	5.1	7.7	7.7	reliable	7.500572
HCC1500_Olaparib:CHIR265	2	0.6	2.2	1.7	reliable	24.12692
BT20_Olaparib:Capivasertib	0.2	0	4.5	1	reliable	20.59977
NCIH2291_AZD7762:AZ13453720	11	0	12.2	0	reliable	-16.67542
NCIH2291_AZD7762:AZ13453202	29.7	0	30.8	0	reliable	29.47265
HCC38_AZ13590108:Selumetinib	3.5	3.5	3.5	3.5	reliable	-1.644451
NCIH522_Ceralasertib:AZ13361171	6.5	0.5	6.5	0.5	reliable	1.499306
SW620_AZ13401366:AZ13250285	94.4	94.4	94.4	94.4	reliable	9.218739
CAMA1_Olaparib:Crizotinib	27.9	27.9	33.8	33.8	reliable	-5.655198
CALU3_AZ13401366:AZ13250285	88.4	88.4	89.2	89.2	reliable	20.59812
HT1197_Olaparib:Selumetinib	7.7	2.9	8.4	2.9	reliable	22.42317
HT1197_Olaparib:Vorinostat	51.2	51.2	51.2	51.2	reliable	1.82154
HCC1428_AZ13590108:Pictilisib	12.2	12.2	15.8	15.8	reliable	-0.2388731
HCC1428_AZ13590108:AZD8186	7.7	7.7	7.7	7.7	reliable	5.694801
HCC1428_AZ13590108:Capivasertib	10.3	10.3	14	14	reliable	3.711987
UACC812_Olaparib:Lonafarnib	0	0	0	0	no synergy	5.643245
UACC812_Olaparib:Obatoclax	0.7	0.3	2.3	2.2	reliable	4.550394
UACC812_Olaparib:Everolimus	0	0	0	0	no synergy	-7.220526
UACC812_Olaparib:Tamoxifen	1.3	1.3	3.3	3.3	reliable	-1.27391
UACC812_Olaparib:Trametinib	4.5	4.5	19.8	18.5	reliable	5.661523
UACC812_Olaparib:Perifosine	1.9	1.9	12.6	1.9	reliable	10.72847
UACC812_Olaparib:Vorinostat	0.5	0.5	6.9	6.5	reliable	14.92222
T47D_AZD1775:AZD1480	0	0	0	0	no synergy	-8.334511
TCCSUP_Olaparib:Selumetinib	11.1	7.6	11.1	7.6	reliable	32.22676
TCCSUP_Olaparib:Vorinostat	0	0	0	0	no synergy	26.04315
HCC1937_AZ13590108:Selumetinib	9	7.9	9	7.9	reliable	32.86496
HCC1143_Olaparib:Capivasertib	0	0	1	1	reliable	1.778901
SW780_Olaparib:Capivasertib	1	1	3.3	3.3	reliable	11.5465
SW780_Olaparib:Sapitinib	0	0	0	0	no synergy	-45.92396
CAMA1_Olaparib:Selumetinib	6.8	1.1	6.8	1.1	reliable	7.932014
CAMA1_Olaparib:Obatoclax	0	0	6.8	0	no synergy	-13.43239
CAMA1_Olaparib:Everolimus	0	0	0	0	no synergy	20.99091
CAMA1_Olaparib:Tamoxifen	0	0	0.2	0.2	reliable	19.2145
CAMA1_Olaparib:Trametinib	17.5	1.1	19.1	5.4	reliable	52.00897
CAMA1_Olaparib:Vorinostat	36.1	36.1	37.3	37.3	uncertain	-54.12328
UMUC3_Olaparib:Capivasertib	1.1	1	23.3	1.8	reliable	2.581538
UMUC3_Olaparib:Sapitinib	0	0	0	0	reliable	2.872364
KU1919_Ceralasertib:Capivasertib	5.6	0	5.8	1	reliable	-110.0582
MDAMB157_Ceralasertib:Capivasertib	0	0	0.1	0	no synergy	32.22192
HCC1419_AZD7762:Perifosine	52.8	52.8	52.9	52.9	reliable	-5.824568
HCC1419_AZD7762:Obatoclax	8.9	8.8	9.3	9.2	reliable	-16.44322
HCC1937_AZ13590108:AZD8186	29.9	9.3	29.9	9.3	reliable	16.36796
HCC1937_AZ13590108:Capivasertib	32.1	17.4	32.1	17.4	reliable	52.92926
NCIH1703_Olaparib:AZ13250285	31	15.7	35.8	35.8	reliable	0.5868556
NCIH1793_AZD7762:AZ13453720	8.5	0	8.5	0	no synergy	26.76047
NCIH1793_AZD7762:AZ13453202	8.5	0	8.5	0	no synergy	4.033558
MDAMB436_AZ13590108:Pictilisib	48.9	48.9	50.9	50.9	reliable	-5.728385
MDAMB436_AZ13590108:AZD8186	44.7	44.7	45.8	45.8	reliable	11.58376
MDAMB436_AZ13590108:Capivasertib	46.6	32.9	47.8	33.6	reliable	13.50382
HT1376_Ceralasertib:Capivasertib	0	0	0	0	reliable	6.599677
HT1197_AZ12618466:Capivasertib	42.8	41.1	44.1	41.7	reliable	7.861261
MDAMB361_Olaparib:Lonafarnib	0	0	0	0	no synergy	5.201494
MDAMB361_Olaparib:Obatoclax	0	0	3.4	0.2	reliable	17.78164
MDAMB361_Olaparib:Everolimus	0	0	0	0	no synergy	25.23473
MDAMB361_Olaparib:Tamoxifen	0.2	0.2	3.3	3.3	reliable	-2.601325
MDAMB361_Olaparib:Trametinib	25.3	25.3	30.5	30.5	reliable	4.523286
MDAMB361_Olaparib:Perifosine	0.2	0	3.2	1	reliable	11.06464
MDAMB361_Olaparib:Vorinostat	9	0	9.7	0	no synergy	-3.133127
HCC1500_Olaparib:Lonafarnib	0	0	0	0	no synergy	13.01202
HCC1500_Olaparib:Obatoclax	17.6	17.6	18.5	18.5	reliable	-6.8611
HCC1500_Olaparib:Everolimus	0	0	0	0	no synergy	8.03426
HCC1500_Olaparib:Tamoxifen	0	0	0	0	no synergy	18.49567
HCC1500_Olaparib:Trametinib	32.9	32.9	44.2	44.2	reliable	38.84827
HCC1500_Olaparib:Perifosine	16.5	14.1	22.8	22.8	reliable	2.041688
HCC1500_Olaparib:Vorinostat	3.8	0	5.4	0	uncertain	-21.82329
NCIH1703_Ceralasertib:AZ13361171	88.7	88.7	88.7	88.7	reliable	-16.5018
647V_Olaparib:Capivasertib	29.3	29.3	29.3	29.3	reliable	21.8213
647V_Olaparib:Sapitinib	0	0	0	0	no synergy	0.4728902
SW780_Olaparib:Selumetinib	5.6	2	7.5	2.9	reliable	-4.808091
SW780_Olaparib:Vorinostat	15.2	13.3	15.2	13.3	reliable	10.51917
MDAMB361_Olaparib:Temsirolimus	0.7	0.7	2.2	2.2	reliable	11.02104
MDAMB361_Olaparib:Navitoclax	1.4	1.4	18.4	18.4	reliable	-5.84897
HCC1395_AZ13590108:Selumetinib	1.8	0	1.9	0.3	no synergy	-4.638301
HCC1419_AZD7762:Navitoclax	39.8	39.8	39.9	39.9	reliable	-9.928519
NCIH520_AZD7762:AZ13453720	14.1	14.1	14.3	14.3	reliable	9.211252
CAMA1_AZ13590108:Pictilisib	9	9	9.3	9.3	reliable	9.90056
CAMA1_AZ13590108:AZD8186	6.8	6.8	6.8	6.8	reliable	37.88414
CAMA1_AZ13590108:Capivasertib	5.4	5	5.4	5	reliable	32.40212
SW837_AZ13401366:Selumetinib	14.6	8	14.8	9	reliable	45.64669
HT29_AZ12594248:Selumetinib	0.1	0	3.9	0	no synergy	32.23027
BT549_AZ13590108:Pictilisib	73.3	73.3	75.2	75.2	reliable	7.792947
BT549_AZ13590108:AZD8186	71.9	71.9	73.9	73.9	reliable	2.721688
BT549_AZ13590108:Capivasertib	73.2	73.2	75.1	75.1	reliable	-1.423423
J82_Olaparib:Capivasertib	16.1	16.1	17.5	17.5	reliable	8.336917
J82_Olaparib:Sapitinib	0	0	0	0	no synergy	-15.21966
HCC1806_Ceralasertib:Capivasertib	1.6	0.6	1.6	0.6	uncertain	14.69232
HCC38_Olaparib:Capivasertib	8.4	1	26.3	2.1	uncertain	-1.152665
TCCSUP_AZD7762:Capivasertib	56.8	56.8	56.8	56.8	reliable	-13.73572
MDAMB436_Olaparib:Capivasertib	15.1	2.8	16.4	3.7	reliable	20.07457
HCC1395_Olaparib:Capivasertib	5	0.8	19.9	1.4	uncertain	18.03672
BFTC905_AZ12618466:Capivasertib	6.7	0.1	7.5	1.1	reliable	70.72939
HT1197_Olaparib:Capivasertib	18.2	1	19.5	2	reliable	1.770297
HT1197_Olaparib:Sapitinib	0	0	0	0	no synergy	-4.829046
BT20_Ceralasertib:Capivasertib	0	0	0	0	no synergy	-0.7921831
MDAMB468_Olaparib:Capivasertib	0.1	0.1	2.5	1.8	reliable	31.24341
HT1376_AZD7762:Capivasertib	96.2	96.2	96.2	96.2	reliable	-0.5930896
SW620_AZ13401366:AZ13257149	93.4	93.4	94.2	94.2	reliable	-36.1505
MDAMB175VII_Olaparib:Temsirolimus	0	0	0	0	no synergy	-42.18884
MDAMB468_AZ13590108:Selumetinib	2.2	2.2	2.2	2.2	reliable	13.30807
HCC1428_Ceralasertib:Capivasertib	0.2	0.2	0.2	0.2	reliable	-9.783662
HCC1937_Ceralasertib:Capivasertib	9.1	0	9.1	0	no synergy	-30.02469
MDAMB231_Olaparib:Selumetinib	17	10.1	17.5	10.7	reliable	13.91307
SW900_AZ13401366:AZ13250285	87.3	87.3	88.2	88.2	reliable	18.61041
T24_AZ13535704:Capivasertib	0.1	0	2.5	2.5	reliable	-0.8014533
HCC1500_AZD7762:GDC0879	8	8	8	8	reliable	5.501776
NCIH1299_Olaparib:AZ13250285	2.2	0.1	8.7	1.1	reliable	-0.1992462
SW900_AZD7762:AZ13453720	24.4	24.4	26.3	26.3	reliable	-9.004979
SW900_AZD7762:AZ13453202	36	36	37	37	reliable	24.42874
647V_AZD7762:Capivasertib	4.4	0.3	4.5	0.7	reliable	18.52572
HCC38_AZ13590108:Pictilisib	68	68	69.8	69.8	uncertain	14.70509
HCC38_AZ13590108:AZD8186	68	68	68.8	68.8	reliable	15.89791
HCC38_AZ13590108:Capivasertib	68	68	69.7	69.7	uncertain	26.93747
KU1919_Olaparib:Vorinostat	24.4	0	31.2	0	reliable	-2.60927
HT1197_AZD7762:Capivasertib	42.4	9.8	44.4	10.8	reliable	-7.858597
NCIH1703_AZD7762:AZ13453720	6.1	6.1	6.6	6.6	reliable	2.912795
NCIH1703_AZD7762:AZ13453202	7.7	7.7	22.8	22.8	reliable	14.32968
TCCSUP_AZ13535704:Capivasertib	9.2	3.8	9.2	3.8	reliable	19.89422
MDAMB231_Olaparib:Capivasertib	1	1	5.4	1	reliable	20.98025
BT549_AZ13590108:Selumetinib	23.5	21	24.3	21.8	reliable	-8.326281
BFTC905_Olaparib:Selumetinib	16.2	14.6	17.6	14.6	reliable	-10.96748
BFTC905_Olaparib:Vorinostat	24.1	24.1	24.8	24.8	reliable	1.09568
J82_Olaparib:Selumetinib	7.1	6	7.1	6	reliable	0.8093844
J82_Olaparib:Vorinostat	88.9	88.9	90	90	reliable	15.32469
NCIH1299_Ceralasertib:AZ13361171	88.9	88.9	88.9	88.9	reliable	-22.69421
SW620_AZ13150560:Selumetinib	0.3	0	0.3	0	no synergy	38.72374
NCIH1975_Ceralasertib:AZ13361171	87.2	87.2	87.2	87.2	reliable	4.510278
DMS114_Ceralasertib:AZ13361171	88.1	88.1	88.1	88.1	reliable	1.90263
HCC70_AZ13590108:Selumetinib	7.2	2.2	7.2	2.2	reliable	9.941856
NCIH2291_AZ13401366:AZ13250285	88.8	88.8	89.1	89.1	reliable	37055
MDAMB175VII_Olaparib:Everolimus	0	0	0	0	no synergy	17.82031
MDAMB175VII_Olaparib:Tamoxifen	0	0	0	0	reliable	-6.802978
MDAMB175VII_Olaparib:Trametinib	25.7	25.7	36.9	36.9	reliable	18.31838
MDAMB175VII_Olaparib:Vorinostat	91	91	93.5	93.5	reliable	-95074
MDAMB157_Olaparib:Selumetinib	10.2	3.5	10.2	3.5	reliable	25.27635
MDAMB468_AZ13590108:Pictilisib	9.7	1.2	27	1.3	reliable	-3.321638
MDAMB468_AZ13590108:AZD8186	5.9	2.3	23.1	6.1	reliable	-5.150774
MDAMB468_AZ13590108:Capivasertib	10	3.7	22	9.2	reliable	6.330129
NCIH2085_AZ13401366:AZ13250285	84.2	84.2	88.2	88.2	reliable	48.50487
HCC70_Olaparib:Selumetinib	6	2.4	6	2.4	reliable	2.871956
NCIH1563_Olaparib:AZ13250285	1.8	1.8	8.9	8.9	reliable	63.52744
MDAMB361_AZD1775:Selumetinib	0	0	0	0	reliable	5.914365
MDAMB361_AZD1775:AZD1480	0	0	0	0	no synergy	-11.23967
HCC1500_AZD1775:Vandetanib	0	0	1.1	0.2	no synergy	-4.112622
HCC1500_AZD1775:Gefitinib	28.8	3.6	30.3	4.1	reliable	-5.568448
NCIH2291_Ceralasertib:AZ13361171	88.3	88.3	88.3	88.3	reliable	-14.11289
T47D_AZD7762:GDC0879	46.8	46.8	46.8	46.8	reliable	-20.85202
T47D_AZD7762:Navitoclax	0.9	0	1.1	0	no synergy	-28.93015
UACC812_AZD1775:Selumetinib	2.2	0	13.3	0	no synergy	32.59765
UACC812_AZD1775:AZD1480	1.1	0	2	0	no synergy	15.81432
CAL148_Ceralasertib:Capivasertib	0.3	0	0.4	0	no synergy	10.17878
DU4475_AZ13590108:Selumetinib	0.6	0.5	2.9	2.5	reliable	9.468994
HCC1806_AZ13590108:Pictilisib	34.6	34.6	40.4	40.4	uncertain	3.448076
HCC1806_AZ13590108:AZD8186	34.4	34.4	39	39	reliable	10.1645
HCC1806_AZ13590108:Capivasertib	34.6	34.6	39	39	uncertain	5.418103
CALU6_Ceralasertib:AZ13361171	0.4	0	0.4	0	no synergy	-48.6886
NCIH2291_Olaparib:AZ13250285	1.4	1.4	2.5	1.6	reliable	7.295653
NCIH2085_Olaparib:AZ13250285	1.3	1.3	4.3	4.3	reliable	2.619226
CAL120_AZ13590108:Selumetinib	13.3	13.3	13.3	13.3	reliable	15.41138
HCC38_Olaparib:Selumetinib	6.8	1.2	6.8	1.2	reliable	15.2536
UACC812_AZD1775:Vandetanib	1.5	0	4.1	0	no synergy	-12.11535
UACC812_AZD1775:Gefitinib	0.3	0.1	1.6	0.1	reliable	8.694813
TCCSUP_Ceralasertib:Capivasertib	21.9	21	21.9	21	reliable	-9.940468
NCIH226_AZ13401366:AZ13250285	84	84	84	84	reliable	40.3154
A549_Olaparib:AZ13250285	0.2	0	3.3	1	reliable	-0.1932339
CALU3_Olaparib:AZ13250285	2.2	2.2	6.9	2.6	reliable	-16.58604
MDAMB361_AZD7762:Perifosine	58.5	58.5	58.5	58.5	reliable	11.45489
MDAMB361_AZD7762:Obatoclax	1	0	3.6	0	no synergy	10.84556
MDAMB468_Olaparib:Selumetinib	6.7	2.2	6.7	2.2	reliable	28.26594
HCC1187_AZ13590108:Pictilisib	23	23	26.1	26.1	reliable	3.177404
HCC1187_AZ13590108:AZD8186	22	22	22	22	reliable	10.14969
HCC1187_AZ13590108:Capivasertib	22.1	22	22.7	22.6	reliable	16.31044
NCIH226_Ceralasertib:AZ13361171	94	94	94	94	uncertain	-2.365187
DMS114_AZ13401366:AZ13250285	90.8	90.8	91.5	91.5	reliable	-26.28739
HCC1937_Olaparib:Capivasertib	14.6	14.6	14.6	14.6	reliable	20.2116
CALU6_AZD7762:AZ13453720	7.2	5.3	7.3	5.7	reliable	-1.628162
CALU6_AZD7762:AZ13453202	28.4	28.4	28.8	28.8	reliable	9.806287
DU4475_AZ13590108:Pictilisib	40.3	38.1	44.9	42.7	reliable	-2.587497
DU4475_AZ13590108:AZD8186	19.6	19.6	28.3	21.4	reliable	6.683709
DU4475_AZ13590108:Capivasertib	39.6	36.8	44.2	41.4	reliable	8.332856
NCIH2085_AZD7762:AZ13453720	39.9	39.9	41.7	41.7	reliable	-32.87092
NCIH2085_AZD7762:AZ13453202	49.7	49.7	50.6	50.6	reliable	-21.03256
UMUC3_AZD7762:Capivasertib	0.1	0	0.1	0	no synergy	-16.93851
647V_AZ13535704:Capivasertib	1.2	0	1.2	0.2	reliable	18.21451
HCC1143_AZ13590108:Selumetinib	0.8	0.8	1.9	1.9	reliable	11.45631
CAMA1_Ceralasertib:Capivasertib	59	45	59	45	reliable	-3.447737
HCC1500_AZD7762:Perifosine	9.2	6	11.8	11.8	reliable	1.517162
HCC1500_AZD7762:Obatoclax	0.3	0.3	6.4	1.1	reliable	-19.77722
HCC70_Olaparib:Capivasertib	4.1	4.1	14.3	14.3	reliable	11.85621
T24_Olaparib:Selumetinib	3.2	0.1	3.6	1	reliable	16.36055
T24_Olaparib:Vorinostat	0	0	0	0	reliable	-16.14572
NCIH522_AZD7762:AZ13453720	9.2	0	9.4	0	no synergy	1.824119
NCIH522_AZD7762:AZ13453202	9.2	0	9.4	0	reliable	-3.269418
NCIH1793_Ceralasertib:AZ13361171	88	88	88	88	reliable	49.50318
TCCSUP_Olaparib:Capivasertib	1.9	1.9	9.4	2.8	reliable	21.65115
TCCSUP_Olaparib:Sapitinib	0	0	0	0	no synergy	9.193982
NCIH1299_AZ13401366:AZ13250285	79.5	79.5	80.3	80.3	reliable	36.40351
VMCUB1_Ceralasertib:Capivasertib	25.3	22.3	28.1	23.4	reliable	-100.6429
BFTC905_Ceralasertib:Capivasertib	2.1	0.6	2.5	2.5	reliable	-14.1991
NCIH2228_Olaparib:AZ13250285	0.3	0	8.1	1	reliable	13.07497
SW837_AZ13401366:AZ13257149	85.3	85.3	86.3	86.3	reliable	12.06184
SW837_AZ13401366:Saracatinib	1.3	1.3	2.5	2.5	reliable	17.77245
MDAMB361_AZD7762:CHIR265	0.3	0.3	0.5	0.3	reliable	7.404457
NCIH838_Olaparib:AZ13250285	0.1	0	4.3	1	reliable	8.690091
UMUC3_AZ12618466:Capivasertib	0.3	0.2	1	1	reliable	4.439843
CAMA1_AZ13590108:Selumetinib	12	11.7	12	11.7	reliable	1.384454
HCC1187_AZ13590108:Selumetinib	0.5	0.5	0.5	0.5	reliable	26.74899
HS578T_AZ13590108:Pictilisib	13	13	13.7	13.7	reliable	6.779687
HS578T_AZ13590108:AZD8186	9.7	1.2	11.6	1.9	reliable	11.30772
HS578T_AZ13590108:Capivasertib	11.1	0.6	11.3	1	reliable	-7.210048
T24_Ceralasertib:Capivasertib	0.1	0	1.2	0	no synergy	-26.02004
BT20_Olaparib:Selumetinib	4.4	4.4	5.2	5.1	reliable	8.212417
C32_AZ12594248:Selumetinib	75.4	66.5	75.4	66.5	uncertain	61.54
BT549_Ceralasertib:Capivasertib	13.7	0	14.2	0	no synergy	-49.69178
HS578T_Olaparib:Selumetinib	10.7	4.8	10.7	4.8	reliable	15.11696
NCIH520_Ceralasertib:AZ13361171	88.7	88.7	88.7	88.7	reliable	-6.132184
MDAMB436_AZ13590108:Selumetinib	0.3	0.3	1.9	1.9	reliable	-0.4076137
HCC1806_Olaparib:Selumetinib	4.5	0.2	4.5	0.2	reliable	57.23506
MDAMB157_AZ13590108:Selumetinib	5.8	5.8	5.8	5.8	reliable	6.154558
BFTC905_AZD7762:Capivasertib	0	0	0.3	0	no synergy	-41.03132
A549_AZD7762:AZ13453720	6	0	6.3	0	reliable	-10.33956
A549_AZD7762:AZ13453202	6	0	6.3	0	reliable	22.39008
NCIH1703_AZ13401366:AZ13250285	51.4	51.4	51.4	51.4	reliable	21.16992
HT1197_Ceralasertib:Capivasertib	0.9	0.6	1.5	0.6	reliable	-12.90671
T24_Olaparib:Capivasertib	0.1	0.1	2.3	2.3	reliable	-30.91176
T24_Olaparib:Sapitinib	0	0	0	0	reliable	3.876115
CALU6_AZ13401366:AZ13250285	86.6	86.6	87.4	87.4	reliable	-5.879417
SW837_AZ12594248:Selumetinib	2.1	0.9	2.1	1	reliable	41.03738
UMUC3_AZ13535704:Capivasertib	52.3	46.3	53.7	47	reliable	4.439843
J82_Ceralasertib:Capivasertib	7	0	7	0	no synergy	1.473032
NCIH2170_Olaparib:AZ13250285	6.7	6.7	19.6	19.6	reliable	20.84112
HCC1500_Olaparib:GDC0879	1.1	0	1.1	0	reliable	-5.69642
HCC1500_Olaparib:Temsirolimus	0	0	2.2	2.2	reliable	1.81562
HCC1500_Olaparib:Navitoclax	17.6	16.8	18	17.6	reliable	30.55778
HCC1500_AZD1775:Selumetinib	0.3	0	1.8	0	no synergy	8.870426
HCC1500_AZD1775:AZD1480	1.9	0	4.5	0.5	reliable	-11.68809
HS578T_AZ13590108:Selumetinib	3	1.5	3	1.5	reliable	6.932673
BFTC905_Olaparib:Capivasertib	6.6	6.6	7.8	7.8	reliable	39.24054
BFTC905_Olaparib:Sapitinib	0	0	0	0	no synergy	58.0453
HCC1428_AZ13590108:Selumetinib	0.2	0.2	0.2	0.2	reliable	9.205514
NCIH1793_Olaparib:AZ13250285	8.7	1.1	8.7	2.2	reliable	16.24603
NCIH1975_AZD7762:AZ13453720	8	0	8.2	0	no synergy	9.108944
NCIH1975_AZD7762:AZ13453202	8.1	0	8.2	0	no synergy	14.62462
NCIH226_Olaparib:AZ13250285	0.3	0.3	4.5	0.3	reliable	27.79404
VMCUB1_Olaparib:Selumetinib	17	8.8	17.8	8.8	reliable	13.12148
VMCUB1_Olaparib:Vorinostat	1.1	0.1	3.5	2.4	reliable	-11.05425
HCC1419_Olaparib:GDC0879	0	0	0	0	reliable	9.096806
HCC1419_Olaparib:Temsirolimus	0.1	0.1	1.2	1.2	reliable	-5.094899
HCC1419_Olaparib:Navitoclax	0	0	13.9	13.9	reliable	-13.0385
BT549_Olaparib:Selumetinib	7.6	2.4	7.8	3.2	reliable	8.742387
NCIH2170_AZD7762:AZ13453720	17.3	17.3	18.1	18.1	reliable	-16.50611
NCIH2170_AZD7762:AZ13453202	30.3	30.3	31.1	31.1	reliable	4.143481
NCIH1437_Olaparib:AZ13250285	3.2	1.2	7.3	1.9	reliable	4.367355
647V_Ceralasertib:Capivasertib	4.4	1.5	4.5	1.5	reliable	8.459137
CAL120_Olaparib:Capivasertib	19.3	10.9	19.3	10.9	reliable	23.09441
NCIH1793_AZ13401366:AZ13250285	84.1	84.1	86.3	86.3	reliable	61.8713
BT549_Olaparib:Capivasertib	17.3	1	19.6	3.1	reliable	18.27409
UACC812_Olaparib:GDC0879	1.9	1.9	9.3	9.3	uncertain	-32.32191
UACC812_Olaparib:Temsirolimus	0	0	0	0	no synergy	-7.674072
UACC812_Olaparib:Navitoclax	2.3	1.1	5.3	5.3	reliable	4.735133
CAMA1_AZD7762:GDC0879	0.1	0	0.1	0	no synergy	19.90077
CAMA1_AZD7762:Navitoclax	0.8	0	0.8	0	no synergy	5.034395
647V_AZ12618466:Capivasertib	58.8	58.8	59.3	59.3	reliable	18.21451
NCIH2228_AZD7762:AZ13453720	0.2	0.2	0.9	0.9	reliable	10.08226
NCIH2228_AZD7762:AZ13453202	31.2	31.2	33.4	33.4	reliable	17.01788
DU4475_Ceralasertib:Capivasertib	2.3	0	2.3	0	no synergy	-10.7695
VMCUB1_AZD7762:Capivasertib	6.6	6.5	7.2	6.9	reliable	-24.38926
UACC812_Olaparib:Crizotinib	1.1	1.1	2.8	1.3	reliable	15.41471
UACC812_Olaparib:CHIR265	1.3	1.3	6.6	6.6	reliable	12.7007
UACC812_AZD1775:Capivasertib	12.5	0	18.8	0	no synergy	1.315653
UACC812_AZD1775:Sapitinib	0	0	0	0	no synergy	18.32462
HCC70_Ceralasertib:Capivasertib	9.2	0.3	9.2	0.3	reliable	6.567307
MDAMB468_Ceralasertib:Capivasertib	0.1	0	0.1	0	reliable	16.51386
HS578T_Ceralasertib:Capivasertib	0.1	0	0.1	0	no synergy	-33.64423
NCIH838_AZ13401366:AZ13250285	87.4	87.4	88.4	88.4	reliable	65.65918
CAMA1_AZD1775:Capivasertib	22.7	0	22.7	0	no synergy	15.59819
CAMA1_AZD1775:Sapitinib	0	0	0	0	no synergy	-2.364399
C32_AZ13150560:Selumetinib	25.8	0	25.8	0	no synergy	61.54
NCIH1437_AZD7762:AZ13453720	28.3	28.3	28.9	28.9	reliable	-23.44283
NCIH1437_AZD7762:AZ13453202	29	29	29.7	29.7	reliable	5.641968
MDAMB436_Olaparib:Selumetinib	17.4	16.4	18.6	17.7	reliable	13.98427
UMUC3_Olaparib:Selumetinib	5.4	4.3	6.1	5	reliable	3.744975
UMUC3_Olaparib:Vorinostat	10.6	7.6	10.6	7.6	reliable	11.96227
NCIH522_AZ13401366:AZ13250285	80.1	80.1	80.1	80.1	reliable	29.24776
DMS114_AZD7762:AZ13453720	25.6	0	26	0	no synergy	-4.251122
DMS114_AZD7762:AZ13453202	27.3	0	28	0	no synergy	24.65932
MDAMB361_AZD1775:Capivasertib	58.9	57.6	59.5	58.2	reliable	0.1517822
MDAMB361_AZD1775:Sapitinib	0	0	0	0	reliable	5.7097
SW900_Olaparib:AZ13250285	1	1	3.9	1.7	reliable	12.5872
NCIH520_Olaparib:AZ13250285	1.2	1.2	2.1	2.1	reliable	15701
HCC1187_Ceralasertib:Capivasertib	0	0	0	0	no synergy	-23.9823
MDAMB231_Ceralasertib:Capivasertib	4.3	0.8	4.4	0.8	reliable	-15.84111
SW780_Ceralasertib:Capivasertib	8.5	0	8.8	0	no synergy	-10.00055
A549_AZ13401366:AZ13250285	87.1	87.1	88	88	reliable	1.658347
TCCSUP_AZ12618466:Capivasertib	12.8	12.8	12.8	12.8	reliable	19.89422
NCIH1975_Olaparib:AZ13250285	4.3	1.4	11.3	3.1	reliable	2.677834
NCIH1299_AZD7762:AZ13453720	6.1	6.1	7.7	7.7	reliable	-4.218549
NCIH1299_AZD7762:AZ13453202	5	5	5.7	5.7	reliable	7.124459
MDAMB436_Ceralasertib:Capivasertib	0.9	0	2	1	reliable	-9.165176
NCIH838_AZD7762:AZ13453720	5	2.2	5.2	3.2	reliable	1.785994
NCIH838_AZD7762:AZ13453202	32.4	32.4	33	33	reliable	4.808513
